<?xml version="1.0" encoding="UTF-8" standalone="no"?>
<!DOCTYPE svg PUBLIC "-//W3C//DTD SVG 1.1//EN" "http://www.w3.org/Graphics/SVG/1.1/DTD/svg11.dtd">
<svg width="100%" height="100%" viewBox="0 0 80 80" version="1.1" xmlns="http://www.w3.org/2000/svg" xmlns:xlink="http://www.w3.org/1999/xlink" xml:space="preserve" xmlns:serif="http://www.serif.com/" style="fill-rule:evenodd;clip-rule:evenodd;stroke-linejoin:round;stroke-miterlimit:2;">
    <g transform="matrix(1,0,0,1,-826.802,-4490)">
        <g transform="matrix(1,0,0,1,-390.832,-344.092)">
            <g transform="matrix(1.33332,0,0,1.33332,1217.63,4834.09)">
                <g id="Icon">
                    <g transform="matrix(1,0,0,1,51.0001,0)">
                        <path d="M0,28C-0.552,28 -1,27.552 -1,27L-1,2L-41,2L-41,27C-41,27.552 -41.448,28 -42,28C-42.552,28 -43,27.552 -43,27L-43,2C-43,0.897 -42.103,0 -41,0L-1,0C0.103,0 1,0.897 1,2L1,27C1,27.552 0.552,28 0,28" style="fill:white;fill-rule:nonzero;"/>
                    </g>
                    <g transform="matrix(1,0,0,1,47.799,24.856)">
                        <path d="M0,29.144C-0.169,29.144 -0.341,29.101 -0.499,29.01L-47.298,2.01C-47.777,1.734 -47.941,1.123 -47.665,0.644C-47.39,0.165 -46.779,0 -46.299,0.278L0.5,27.278C0.979,27.554 1.143,28.165 0.867,28.644C0.682,28.965 0.346,29.144 0,29.144" style="fill:white;fill-rule:nonzero;"/>
                    </g>
                    <g transform="matrix(1,0,0,1,31.0607,24.8583)">
                        <path d="M0,19.484C-0.334,19.484 -0.661,19.317 -0.851,19.011C-1.142,18.542 -0.998,17.925 -0.528,17.634L27.412,0.292C27.879,0 28.497,0.145 28.789,0.614C29.081,1.084 28.936,1.7 28.467,1.991L0.526,19.334C0.362,19.436 0.18,19.484 0,19.484" style="fill:white;fill-rule:nonzero;"/>
                    </g>
                    <g transform="matrix(1,0,0,1,56.0001,17.609)">
                        <path d="M0,42.391L-52,42.391C-54.206,42.391 -56,40.597 -56,38.391L-56,8.332C-56,7.435 -55.604,6.593 -54.913,6.02L-47.638,0L-46.362,1.541L-53.637,7.561C-53.868,7.752 -54,8.033 -54,8.332L-54,38.391C-54,39.494 -53.103,40.391 -52,40.391L0,40.391C1.103,40.391 2,39.494 2,38.391L2,8.332C2,8.033 1.868,7.752 1.637,7.561L-5.638,1.541L-4.362,0L2.913,6.02C3.604,6.593 4,7.435 4,8.332L4,38.391C4,40.597 2.206,42.391 0,42.391" style="fill:white;fill-rule:nonzero;"/>
                    </g>
                    <g transform="matrix(-1,0,0,1,20,44)">
                        <rect x="6" y="7" width="8" height="2" style="fill:white;"/>
                    </g>
                    <g transform="matrix(-1,0,0,1,24,34)">
                        <rect x="6" y="12" width="12" height="2" style="fill:white;"/>
                    </g>
                    <g transform="matrix(1,0,0,1,31.3683,16.1332)">
                        <path d="M0,5.734C0.642,5.052 0.964,4.125 0.964,2.951C0.964,1.796 0.642,0.879 0,0.204C-0.642,-0.47 -1.467,-0.808 -2.473,-0.808C-3.495,-0.808 -4.324,-0.467 -4.959,0.217C-5.594,0.899 -5.911,1.812 -5.911,2.951C-5.911,4.109 -5.594,5.031 -4.959,5.722C-4.324,6.413 -3.495,6.759 -2.473,6.759C-1.467,6.759 -0.642,6.418 0,5.734M3.38,-6.785C5.037,-5.884 6.327,-4.632 7.248,-3.025C8.168,-1.419 8.632,0.398 8.632,2.421C8.632,4.51 8.236,6.144 7.447,7.324C6.656,8.505 5.565,9.096 4.169,9.096C3.427,9.096 2.8,8.915 2.29,8.553C1.777,8.193 1.422,7.674 1.22,7C0.29,8.398 -1.103,9.096 -2.961,9.096C-4.014,9.096 -4.966,8.835 -5.818,8.313C-6.67,7.791 -7.336,7.064 -7.816,6.132C-8.296,5.201 -8.536,4.141 -8.536,2.951C-8.536,1.779 -8.296,0.731 -7.816,-0.193C-7.336,-1.117 -6.67,-1.84 -5.818,-2.362C-4.966,-2.884 -4.014,-3.145 -2.961,-3.145C-2.141,-3.145 -1.401,-3 -0.742,-2.712C-0.085,-2.422 0.469,-1.996 0.917,-1.435L0.917,-3L3.498,-3L3.498,5.192C3.498,5.771 3.609,6.189 3.835,6.445C4.058,6.702 4.348,6.832 4.706,6.832C5.339,6.832 5.823,6.457 6.157,5.711C6.489,4.963 6.656,3.883 6.656,2.469C6.656,0.766 6.28,-0.735 5.53,-2.037C4.779,-3.339 3.73,-4.35 2.381,-5.074C1.035,-5.796 -0.513,-6.158 -2.264,-6.158C-4.03,-6.158 -5.594,-5.776 -6.957,-5.014C-8.319,-4.25 -9.373,-3.186 -10.116,-1.82C-10.859,-0.454 -11.23,1.096 -11.23,2.83C-11.23,4.599 -10.863,6.164 -10.127,7.53C-9.392,8.896 -8.35,9.96 -7.002,10.722C-5.655,11.486 -4.107,11.868 -2.357,11.868C-1.598,11.868 -0.827,11.779 -0.047,11.603C0.736,11.425 1.469,11.16 2.149,10.807L2.776,12.735C2.096,13.105 1.293,13.386 0.372,13.578C-0.548,13.771 -1.459,13.867 -2.357,13.867C-4.525,13.867 -6.442,13.393 -8.106,12.445C-9.771,11.498 -11.064,10.189 -11.986,8.518C-12.907,6.848 -13.368,4.951 -13.368,2.83C-13.368,0.743 -12.903,-1.133 -11.974,-2.796C-11.045,-4.458 -9.74,-5.765 -8.06,-6.712C-6.379,-7.66 -4.447,-8.133 -2.264,-8.133C-0.159,-8.133 1.724,-7.684 3.38,-6.785" style="fill:white;fill-rule:nonzero;"/>
                    </g>
                </g>
            </g>
        </g>
    </g>
</svg>
