<?xml version="1.0" encoding="UTF-8" standalone="no"?>
<!DOCTYPE svg PUBLIC "-//W3C//DTD SVG 1.1//EN" "http://www.w3.org/Graphics/SVG/1.1/DTD/svg11.dtd">
<svg width="100%" height="100%" viewBox="0 0 30 30" version="1.1" xmlns="http://www.w3.org/2000/svg" xmlns:xlink="http://www.w3.org/1999/xlink" xml:space="preserve" xmlns:serif="http://www.serif.com/" style="fill-rule:evenodd;clip-rule:evenodd;stroke-linejoin:round;stroke-miterlimit:2;">
    <g transform="matrix(1,0,0,1,-1338,-1501)">
        <g transform="matrix(1,0,0,1,301,-43)">
            <g transform="matrix(3.41129,0,0,3.41129,-2261.72,-3723.04)">
                <circle cx="971.397" cy="1548.4" r="4.397" style="fill:white;"/>
            </g>
            <g transform="matrix(0.0985127,0,0,0.0985127,874.259,1461.17)">
                <path d="M1804.24,840.833C1720.28,840.833 1651.98,909.137 1651.98,993.096C1651.98,1077.05 1720.28,1145.36 1804.24,1145.36C1888.2,1145.36 1956.51,1077.05 1956.51,993.096C1956.51,909.137 1888.2,840.833 1804.24,840.833ZM1804.24,1127.02C1730.4,1127.02 1670.32,1066.94 1670.32,993.096C1670.32,919.25 1730.4,859.175 1804.24,859.175C1878.09,859.175 1938.17,919.25 1938.17,993.096C1938.17,1066.94 1878.09,1127.02 1804.24,1127.02ZM1804.24,1012.14C1771.54,1012.14 1741,1029.78 1724.55,1058.19C1722.02,1062.57 1723.51,1068.18 1727.89,1070.72C1732.26,1073.25 1737.88,1071.76 1740.42,1067.38C1753.6,1044.62 1778.06,1030.48 1804.24,1030.48C1830.42,1030.48 1854.88,1044.62 1868.06,1067.38C1869.77,1070.32 1872.84,1071.96 1876,1071.96C1877.57,1071.96 1879.15,1071.56 1880.6,1070.72C1884.98,1068.18 1886.47,1062.57 1883.93,1058.19C1867.48,1029.78 1836.95,1012.14 1804.24,1012.14ZM1779.82,972.921C1782.68,968.742 1781.61,963.033 1777.43,960.171C1773.28,957.321 1767.56,958.375 1764.69,962.55C1760.92,968.046 1754.71,971.329 1748.08,971.329C1741.45,971.329 1735.23,968.046 1731.47,962.55C1728.6,958.375 1722.88,957.321 1718.72,960.171C1714.54,963.033 1713.47,968.742 1716.34,972.921C1723.53,983.408 1735.39,989.671 1748.08,989.671C1760.77,989.671 1772.63,983.408 1779.82,972.921ZM1889.76,960.171C1885.6,957.321 1879.89,958.375 1877.01,962.55C1873.25,968.046 1867.04,971.329 1860.4,971.329C1853.77,971.329 1847.56,968.046 1843.79,962.55C1840.93,958.375 1835.21,957.321 1831.05,960.171C1826.87,963.033 1825.8,968.742 1828.66,972.921C1835.85,983.408 1847.72,989.671 1860.4,989.671C1873.09,989.671 1884.95,983.408 1892.14,972.921C1895.01,968.742 1893.94,963.033 1889.76,960.171Z" style="fill:rgb(50,95,169);fill-rule:nonzero;"/>
            </g>
        </g>
    </g>
</svg>
