<?xml version="1.0" encoding="UTF-8" standalone="no"?>
<!DOCTYPE svg PUBLIC "-//W3C//DTD SVG 1.1//EN" "http://www.w3.org/Graphics/SVG/1.1/DTD/svg11.dtd">
<svg width="100%" height="100%" viewBox="0 0 30 31" version="1.1" xmlns="http://www.w3.org/2000/svg" xmlns:xlink="http://www.w3.org/1999/xlink" xml:space="preserve" xmlns:serif="http://www.serif.com/" style="fill-rule:evenodd;clip-rule:evenodd;stroke-linejoin:round;stroke-miterlimit:2;">
    <g transform="matrix(1,0,0,1,-1279,-1501)">
        <g transform="matrix(1,0,0,1,301,-43)">
            <g transform="matrix(3.41129,0,0,3.41129,-2320.72,-3723.04)">
                <circle cx="971.397" cy="1548.4" r="4.397" style="fill:white;"/>
            </g>
            <g transform="matrix(0.0985127,0,0,0.0985127,815.259,1543.9)">
                <path d="M1804.24,305.542C1888.2,305.542 1956.51,237.238 1956.51,153.279C1956.51,69.321 1888.2,1.012 1804.24,1.012C1720.28,1.012 1651.98,69.321 1651.98,153.279C1651.98,237.238 1720.28,305.542 1804.24,305.542ZM1804.24,19.358C1878.09,19.358 1938.17,79.433 1938.17,153.279C1938.17,227.125 1878.09,287.2 1804.24,287.2C1730.4,287.2 1670.32,227.125 1670.32,153.279C1670.32,79.433 1730.4,19.358 1804.24,19.358ZM1727.89,230.9C1732.25,233.438 1737.88,231.95 1740.42,227.562C1753.6,204.804 1778.06,190.667 1804.24,190.667C1830.42,190.667 1854.88,204.804 1868.06,227.562C1869.77,230.496 1872.84,232.138 1876,232.138C1877.57,232.138 1879.15,231.738 1880.6,230.9C1884.98,228.363 1886.47,222.75 1883.93,218.367C1867.48,189.967 1836.95,172.325 1804.24,172.325C1771.54,172.325 1741.01,189.967 1724.55,218.367C1722.02,222.75 1723.51,228.363 1727.89,230.9ZM1827.07,147.413C1828.86,149.204 1831.21,150.1 1833.55,150.1C1835.9,150.1 1838.25,149.204 1840.04,147.413L1854.29,133.158L1868.54,147.413C1870.33,149.204 1872.68,150.1 1875.03,150.1C1877.37,150.1 1879.72,149.204 1881.51,147.413C1885.09,143.833 1885.09,138.025 1881.51,134.446L1867.26,120.192L1881.51,105.942C1885.09,102.363 1885.09,96.55 1881.51,92.971C1877.93,89.388 1872.12,89.388 1868.54,92.971L1854.29,107.225L1840.04,92.971C1836.45,89.388 1830.65,89.388 1827.07,92.971C1823.49,96.55 1823.49,102.363 1827.07,105.942L1841.32,120.192L1827.07,134.446C1823.49,138.025 1823.49,143.833 1827.07,147.413ZM1726.98,147.413C1728.77,149.204 1731.11,150.1 1733.46,150.1C1735.81,150.1 1738.15,149.204 1739.95,147.413L1754.2,133.158L1768.45,147.413C1770.24,149.204 1772.59,150.1 1774.93,150.1C1777.28,150.1 1779.62,149.204 1781.42,147.413C1785,143.833 1785,138.025 1781.42,134.446L1767.17,120.192L1781.42,105.942C1785,102.363 1785,96.55 1781.42,92.971C1777.83,89.388 1772.03,89.388 1768.45,92.971L1754.2,107.225L1739.95,92.971C1736.36,89.388 1730.56,89.388 1726.98,92.971C1723.4,96.55 1723.4,102.363 1726.98,105.942L1741.23,120.192L1726.98,134.446C1723.4,138.025 1723.4,143.833 1726.98,147.413Z" style="fill:rgb(50,95,169);fill-rule:nonzero;"/>
            </g>
        </g>
    </g>
</svg>
