<?xml version="1.0" encoding="UTF-8" standalone="no"?>
<!DOCTYPE svg PUBLIC "-//W3C//DTD SVG 1.1//EN" "http://www.w3.org/Graphics/SVG/1.1/DTD/svg11.dtd">
<svg width="100%" height="100%" viewBox="0 0 6 10" version="1.1" xmlns="http://www.w3.org/2000/svg" xmlns:xlink="http://www.w3.org/1999/xlink" xml:space="preserve" xmlns:serif="http://www.serif.com/" style="fill-rule:evenodd;clip-rule:evenodd;stroke-linejoin:round;stroke-miterlimit:2;">
    <g transform="matrix(1,0,0,1,-490.433,-129.919)">
        <g transform="matrix(1,0,0,1,360.019,-3134.5)">
            <g transform="matrix(1,0,0,1.01015,-4470.88,-31.1684)">
                <g transform="matrix(-1.41421,1.41421,-0.824958,-0.824958,13805.3,-545.72)">
                    <path d="M4601,3264.86C4601,3264.38 4600.78,3264 4600.5,3264C4600.22,3264 4600,3264.38 4600,3264.86L4600,3269.14C4600,3269.62 4600.22,3270 4600.5,3270C4600.78,3270 4601,3269.62 4601,3269.14L4601,3264.86Z"/>
                </g>
                <g transform="matrix(-4.94975,4.94975,-0.235702,-0.235702,28145.4,-18732.5)">
                    <path d="M4601,3267C4601,3265.34 4600.94,3264 4600.86,3264L4600.14,3264C4600.06,3264 4600,3265.34 4600,3267C4600,3268.66 4600.06,3270 4600.14,3270L4600.86,3270C4600.94,3270 4601,3268.66 4601,3267Z"/>
                </g>
            </g>
        </g>
    </g>
</svg>
