<?xml version="1.0" encoding="UTF-8" standalone="no"?>
<!DOCTYPE svg PUBLIC "-//W3C//DTD SVG 1.1//EN" "http://www.w3.org/Graphics/SVG/1.1/DTD/svg11.dtd">
<svg width="100%" height="100%" viewBox="0 0 13 17" version="1.1" xmlns="http://www.w3.org/2000/svg" xmlns:xlink="http://www.w3.org/1999/xlink" xml:space="preserve" xmlns:serif="http://www.serif.com/" style="fill-rule:evenodd;clip-rule:evenodd;stroke-linejoin:round;stroke-miterlimit:2;">
    <g transform="matrix(1,0,0,1,-1863.48,-839.188)">
        <g transform="matrix(1,0,0,1,-30.015,402.143)">
            <g transform="matrix(5.1338e-17,-0.838414,0.838414,5.1338e-17,-703.274,2029.42)">
                <path id="圖層-323-拷貝" serif:id="圖層 323 拷貝" d="M1889.78,3097.7C1889.17,3098.31 1889.17,3099.29 1889.78,3099.89L1893.33,3103.45L1881.57,3103.45C1880.71,3103.45 1880.02,3104.14 1880.02,3105C1880.02,3105.86 1880.71,3106.55 1881.57,3106.55L1893.33,3106.55L1889.78,3110.11C1889.17,3110.71 1889.17,3111.69 1889.78,3112.3C1890.08,3112.6 1890.48,3112.75 1890.87,3112.75C1891.27,3112.75 1891.67,3112.6 1891.97,3112.3L1899.27,3105L1891.97,3097.7C1891.36,3097.1 1890.38,3097.1 1889.78,3097.7Z" style="fill:white;"/>
            </g>
        </g>
    </g>
</svg>
