<?xml version="1.0" encoding="UTF-8" standalone="no"?>
<!DOCTYPE svg PUBLIC "-//W3C//DTD SVG 1.1//EN" "http://www.w3.org/Graphics/SVG/1.1/DTD/svg11.dtd">
<svg width="100%" height="100%" viewBox="0 0 13 9" version="1.1" xmlns="http://www.w3.org/2000/svg" xmlns:xlink="http://www.w3.org/1999/xlink" xml:space="preserve" xmlns:serif="http://www.serif.com/" style="fill-rule:evenodd;clip-rule:evenodd;stroke-linejoin:round;stroke-miterlimit:2;">
    <g transform="matrix(1,0,0,1,-696.782,-1262.55)">
        <g transform="matrix(1,0,0,1,333.5,-712.05)">
            <g transform="matrix(1,0,0,1,-384.354,-318.571)">
                <g transform="matrix(0.618718,0.618718,-0.48423,0.48423,1398.3,718.385)">
                    <rect x="750" y="2299.08" width="8" height="2.921" style="fill:white;"/>
                </g>
                <g transform="matrix(0.176777,0.176777,-2.56298,2.56298,6518.57,-3731.9)">
                    <rect x="750" y="2299.08" width="8" height="2.921" style="fill:white;"/>
                </g>
            </g>
        </g>
    </g>
</svg>
