<?xml version="1.0" encoding="UTF-8" standalone="no"?>
<!DOCTYPE svg PUBLIC "-//W3C//DTD SVG 1.1//EN" "http://www.w3.org/Graphics/SVG/1.1/DTD/svg11.dtd">
<svg width="100%" height="100%" viewBox="0 0 21 26" version="1.1" xmlns="http://www.w3.org/2000/svg" xmlns:xlink="http://www.w3.org/1999/xlink" xml:space="preserve" xmlns:serif="http://www.serif.com/" style="fill-rule:evenodd;clip-rule:evenodd;stroke-linejoin:round;stroke-miterlimit:2;">
    <g transform="matrix(1,0,0,1,-705.6,-2574)">
        <g transform="matrix(0.866667,0,0,0.866667,-5.06667,2006.78)">
            <g transform="matrix(0.0467836,0,0,0.0469484,814.035,651.451)">
                <path d="M448.5,64.5L640.5,256.5L640.5,640.5C640.5,657.5 634,672.25 621,684.75C608,697.25 593,703.5 576,703.5L192,703.5C175,703.5 160,697.25 147,684.75C134,672.25 127.5,657.5 127.5,640.5L129,127.5C129,110.5 135.25,95.75 147.75,83.25C160.25,70.75 175,64.5 192,64.5L448.5,64.5ZM576,640.5L576,288L415.5,288L415.5,127.5L192,127.5L192,640.5L576,640.5ZM511.5,480L384,607.5L256.5,480L301.5,433.5L352.5,484.5L352.5,352.5L415.5,352.5L415.5,484.5L466.5,435L511.5,480Z" style="fill:rgb(94,134,188);"/>
            </g>
        </g>
    </g>
</svg>
