<?xml version="1.0" encoding="UTF-8" standalone="no"?>
<!DOCTYPE svg PUBLIC "-//W3C//DTD SVG 1.1//EN" "http://www.w3.org/Graphics/SVG/1.1/DTD/svg11.dtd">
<svg width="100%" height="100%" viewBox="0 0 36 28" version="1.1" xmlns="http://www.w3.org/2000/svg" xmlns:xlink="http://www.w3.org/1999/xlink" xml:space="preserve" xmlns:serif="http://www.serif.com/" style="fill-rule:evenodd;clip-rule:evenodd;stroke-linejoin:round;stroke-miterlimit:2;">
    <g transform="matrix(1,0,0,1,-386.093,-1346.15)">
        <g transform="matrix(1,0,0,1,-62.557,540.5)">
            <g transform="matrix(0.871671,0,0,0.871671,477.933,822.518)">
                <path d="M0,-6.925C-0.619,-13.012 -5,-19.351 -13.42,-19.351C-14.444,-19.351 -15.454,-19.251 -16.424,-19.055C-17.031,-18.932 -17.426,-18.337 -17.304,-17.727C-17.182,-17.122 -16.59,-16.725 -15.976,-16.847C-15.157,-17.013 -14.297,-17.098 -13.42,-17.098C-5.687,-17.098 -2.166,-11.017 -2.166,-5.367L-2.166,-3.939C-2.166,-3.318 -1.66,-2.813 -1.039,-2.813C-0.418,-2.813 0.087,-3.318 0.087,-3.939L0.086,-4.625C2.464,-4.098 5.453,-1.891 5.453,2.728C5.453,6.903 2.393,10.173 -1.516,10.173L-24.373,10.173C-27.836,10.173 -31.342,7.616 -31.342,2.728C-31.342,-0.858 -29.161,-4.717 -24.373,-4.717L-22.944,-4.717C-22.323,-4.717 -21.818,-5.222 -21.818,-5.843C-21.818,-6.465 -22.323,-6.969 -22.944,-6.969L-23.723,-6.969L-23.723,-8.224C-23.723,-11.421 -21.83,-13.329 -18.659,-13.329C-15.819,-13.329 -13.594,-11.087 -13.594,-8.224L-13.594,2.66L-16.46,0.001C-16.679,-0.206 -16.978,-0.3 -17.265,-0.303C-17.567,-0.294 -17.848,-0.167 -18.054,0.055C-18.26,0.277 -18.367,0.564 -18.355,0.866C-18.344,1.167 -18.215,1.445 -17.996,1.647L-13.711,5.621C-12.886,6.443 -12.036,6.429 -11.254,5.649L-6.94,1.647C-6.719,1.441 -6.591,1.161 -6.581,0.861C-6.57,0.56 -6.677,0.274 -6.88,0.056C-7.086,-0.167 -7.367,-0.296 -7.67,-0.305C-7.978,-0.312 -8.259,-0.207 -8.473,-0.004L-11.342,2.659L-11.342,-8.224C-11.342,-12.35 -14.556,-15.581 -18.659,-15.581C-23.035,-15.581 -25.975,-12.625 -25.975,-8.224L-25.975,-6.844C-31.205,-6.031 -33.594,-1.384 -33.594,2.728C-33.594,7.429 -30.362,12.426 -24.373,12.426L-1.516,12.426C3.655,12.426 7.706,8.166 7.706,2.728C7.706,-3.613 3.289,-6.441 0,-6.925" style="fill-rule:nonzero;"/>
            </g>
        </g>
    </g>
</svg>
