<?xml version="1.0" encoding="UTF-8" standalone="no"?>
<!DOCTYPE svg PUBLIC "-//W3C//DTD SVG 1.1//EN" "http://www.w3.org/Graphics/SVG/1.1/DTD/svg11.dtd">
<svg width="100%" height="100%" viewBox="0 0 19 10" version="1.1" xmlns="http://www.w3.org/2000/svg" xmlns:xlink="http://www.w3.org/1999/xlink" xml:space="preserve" xmlns:serif="http://www.serif.com/" style="fill-rule:evenodd;clip-rule:evenodd;stroke-linejoin:round;stroke-miterlimit:2;">
    <g transform="matrix(1,0,0,1,-990,-1262.25)">
        <g transform="matrix(1,0,0,1,387.5,-703.875)">
            <g transform="matrix(0.0247396,0,0,0.0247396,602.5,1961.38)">
                <path d="M480,256L576,256C611.36,256 643.296,270.304 666.496,293.504C689.696,316.704 704,348.64 704,384C704,419.36 689.696,451.296 666.496,474.496C643.296,497.696 611.36,512 576,512L480,512C462.336,512 448,526.336 448,544C448,561.664 462.336,576 480,576L576,576C629.024,576 677.056,554.464 711.776,519.776C746.496,485.088 768,437.024 768,384C768,330.976 746.464,282.944 711.776,248.224C677.088,213.504 629.024,192 576,192L480,192C462.336,192 448,206.336 448,224C448,241.664 462.336,256 480,256ZM288,512L192,512C156.64,512 124.704,497.696 101.504,474.496C78.304,451.296 64,419.36 64,384C64,348.64 78.304,316.704 101.504,293.504C124.704,270.304 156.64,256 192,256L288,256C305.664,256 320,241.664 320,224C320,206.336 305.664,192 288,192L192,192C138.976,192 90.944,213.536 56.224,248.224C21.504,282.912 -0,330.976 -0,384C-0,437.024 21.536,485.056 56.224,519.776C90.912,554.496 138.976,576 192,576L288,576C305.664,576 320,561.664 320,544C320,526.336 305.664,512 288,512ZM256,416L512,416C529.664,416 544,401.664 544,384C544,366.336 529.664,352 512,352L256,352C238.336,352 224,366.336 224,384C224,401.664 238.336,416 256,416Z" style="fill:rgb(42,179,172);fill-rule:nonzero;"/>
            </g>
        </g>
    </g>
</svg>
