<?xml version="1.0" encoding="UTF-8" standalone="no"?>
<!DOCTYPE svg PUBLIC "-//W3C//DTD SVG 1.1//EN" "http://www.w3.org/Graphics/SVG/1.1/DTD/svg11.dtd">
<svg width="100%" height="100%" viewBox="0 0 20 20" version="1.1" xmlns="http://www.w3.org/2000/svg" xmlns:xlink="http://www.w3.org/1999/xlink" xml:space="preserve" xmlns:serif="http://www.serif.com/" style="fill-rule:evenodd;clip-rule:evenodd;stroke-linejoin:round;stroke-miterlimit:2;">
    <g transform="matrix(1,0,0,1,-549,-745)">
        <g transform="matrix(1,0,0,1,0,115.5)">
            <g transform="matrix(0.0312989,0,0,0.0312989,546.981,627.481)">
                <path d="M448.5,367.5L448.5,271.5L480,271.5L480,367.5L448.5,367.5ZM127.5,192L127.5,640.5L576,640.5L576,703.5L127.5,703.5C110.5,703.5 95.75,697.25 83.25,684.75C70.75,672.25 64.5,657.5 64.5,640.5L64.5,192L127.5,192ZM288,304.5L288,271.5L319.5,271.5L319.5,304.5L288,304.5ZM655.5,271.5L655.5,223.5L559.5,223.5L559.5,415.5L607.5,415.5L607.5,352.5L655.5,352.5L655.5,304.5L607.5,304.5L607.5,271.5L655.5,271.5ZM528,367.5L528,271.5C528,258.5 523.5,247.25 514.5,237.75C505.5,228.25 494,223.5 480,223.5L400.5,223.5L400.5,415.5L480,415.5C494,415.5 505.5,410.75 514.5,401.25C523.5,391.75 528,380.5 528,367.5ZM367.5,304.5L367.5,271.5C367.5,258.5 362.75,247.25 353.25,237.75C343.75,228.25 332.5,223.5 319.5,223.5L240,223.5L240,415.5L288,415.5L288,352.5L319.5,352.5C332.5,352.5 343.75,347.75 353.25,338.25C362.75,328.75 367.5,317.5 367.5,304.5ZM640.5,64.5C657.5,64.5 672.25,70.75 684.75,83.25C697.25,95.75 703.5,110.5 703.5,127.5L703.5,511.5C703.5,528.5 697.25,543.5 684.75,556.5C672.25,569.5 657.5,576 640.5,576L256.5,576C239.5,576 224.5,569.5 211.5,556.5C198.5,543.5 192,528.5 192,511.5L192,127.5C192,110.5 198.5,95.75 211.5,83.25C224.5,70.75 239.5,64.5 256.5,64.5L640.5,64.5Z" style="fill:rgb(200,200,200);fill-rule:nonzero;"/>
            </g>
        </g>
    </g>
</svg>
