<?xml version="1.0" encoding="UTF-8" standalone="no"?>
<!DOCTYPE svg PUBLIC "-//W3C//DTD SVG 1.1//EN" "http://www.w3.org/Graphics/SVG/1.1/DTD/svg11.dtd">
<svg width="100%" height="100%" viewBox="0 0 18 18" version="1.1" xmlns="http://www.w3.org/2000/svg" xmlns:xlink="http://www.w3.org/1999/xlink" xml:space="preserve" xmlns:serif="http://www.serif.com/" style="fill-rule:evenodd;clip-rule:evenodd;stroke-linejoin:round;stroke-miterlimit:2;">
    <g transform="matrix(1,0,0,1,-1697,-714.632)">
        <g transform="matrix(1,0,0,1,-194,283.648)">
            <g transform="matrix(0.0350877,0,0,0.0350877,1886.53,426.511)">
                <path d="M384,448.5C438,448.5 494.25,460.25 552.75,483.75C611.25,507.25 640.5,538 640.5,576L640.5,640.5L127.5,640.5L127.5,576C127.5,538 156.75,507.25 215.25,483.75C273.75,460.25 330,448.5 384,448.5ZM384,384C349,384 319,371.5 294,346.5C269,321.5 256.5,291.5 256.5,256.5C256.5,221.5 269,191.25 294,165.75C319,140.25 349,127.5 384,127.5C419,127.5 449,140.25 474,165.75C499,191.25 511.5,221.5 511.5,256.5C511.5,291.5 499,321.5 474,346.5C449,371.5 419,384 384,384Z" style="fill-rule:nonzero;"/>
            </g>
        </g>
    </g>
</svg>
