<?xml version="1.0" encoding="UTF-8" standalone="no"?>
<!DOCTYPE svg PUBLIC "-//W3C//DTD SVG 1.1//EN" "http://www.w3.org/Graphics/SVG/1.1/DTD/svg11.dtd">
<svg width="100%" height="100%" viewBox="0 0 964 660" version="1.1" xmlns="http://www.w3.org/2000/svg" xmlns:xlink="http://www.w3.org/1999/xlink" xml:space="preserve" xmlns:serif="http://www.serif.com/" style="fill-rule:evenodd;clip-rule:evenodd;stroke-linecap:round;stroke-linejoin:round;stroke-miterlimit:10;">
    <g transform="matrix(1,0,0,1,-941.152,-2915.02)">
        <g transform="matrix(0.983607,0,0,0.983607,686.544,2915.04)">
            <g id="車身底版線束">
                <g id="車身底版線束1" serif:id="車身底版線束">
                    <g transform="matrix(1,0,0,1,290.886,540.805)">
                        <path d="M0,-219.944C0,-219.944 -6.307,-184.444 -6.936,-156.861C-7.596,-127.907 -5.174,-115.741 -1.872,-86.19C3.121,-41.521 -0.604,-27.243 -0.771,-13.605C-1.048,8.982 -1.872,37.966 21.967,46.533C34.279,50.957 58.128,44.606 70.5,43.175C82.873,41.743 86.862,41.964 103.816,35.566C120.771,29.168 126.825,25.781 139.913,18.686C153.001,11.592 189.305,-9.7 189.305,-9.7C204.155,-20.445 270.667,-90.713 311.783,-114.688C318.612,-118.67 330.292,-119.176 337.847,-116.216C401.703,-91.201 602.233,-19.007 609.267,-15.483C631.494,-4.345 613.931,1.223 607.339,4.867C560.358,30.843 439.967,101.417 400.074,124.806C392.236,129.401 385.694,127.26 385.676,115.388C385.589,55.603 386.702,-21.117 368.681,-51.429C341.029,-97.941 359.43,-118.732 372.97,-139.545C405.095,-188.927 434.604,-232.848 463.672,-272.049C468.299,-278.289 474.562,-287.705 466.571,-290.512C410.45,-310.226 304.734,-343.329 297.129,-346.494C290.277,-349.345 288.392,-346.896 285.099,-342.926" style="fill:none;fill-rule:nonzero;stroke:rgb(255,177,19);stroke-width:5.08px;"/>
                    </g>
                    <g transform="matrix(1,0,0,1,692.327,556.201)">
                        <path d="M0,-20.072C-0.533,-19.89 -1.083,-19.66 -1.648,-19.378C-9.794,-15.31 -17.861,-6.105 -17.591,0" style="fill:none;fill-rule:nonzero;stroke:rgb(255,177,19);stroke-width:5.08px;"/>
                    </g>
                    <g transform="matrix(-1,0,0,1,692.329,541.884)">
                        <path d="M0,-11.125C-3.07,-11.125 -5.562,-8.633 -5.562,-5.563C-5.562,-2.492 -3.07,0 0,0C3.07,0 5.562,-2.492 5.562,-5.563C5.562,-8.633 3.07,-11.125 0,-11.125"/>
                    </g>
                    <g transform="matrix(-1,0,0,1,692.329,541.884)">
                        <ellipse cx="0" cy="-5.563" rx="5.562" ry="5.563" style="fill:none;stroke:rgb(255,177,19);stroke-width:3.05px;"/>
                    </g>
                    <g transform="matrix(1,0,0,1,909.131,478.241)">
                        <path d="M0,60.96C10.703,55.763 -11.096,17.508 11.571,4.878C14.623,3.178 17.589,1.553 20.471,0" style="fill:none;fill-rule:nonzero;stroke:rgb(255,177,19);stroke-width:5.08px;"/>
                    </g>
                    <g transform="matrix(-0.636907,0.770941,0.770941,0.636907,919.255,524.293)">
                        <path d="M-15.235,-6.825C-11.648,-10.108 -4.75,-13.755 2.924,-6.825" style="fill:none;fill-rule:nonzero;stroke:rgb(255,177,19);stroke-width:5.08px;"/>
                    </g>
                    <g transform="matrix(-0.846737,0.532012,0.532012,0.846737,805.148,516.126)">
                        <path d="M-220.423,-63.5C-177.718,-64.734 -33.117,-63.475 18.293,-63.5" style="fill:none;fill-rule:nonzero;stroke:rgb(255,177,19);stroke-width:5.08px;"/>
                    </g>
                    <g transform="matrix(-0.261594,0.965178,0.965178,0.261594,874.927,241.105)">
                        <path d="M-36.064,-15.747C-10.339,-46.919 -12.38,3.933 8.837,-15.747" style="fill:none;fill-rule:nonzero;stroke:rgb(255,177,19);stroke-width:5.08px;"/>
                    </g>
                    <g transform="matrix(-0.260068,0.96559,0.96559,0.260068,872.116,250.187)">
                        <path d="M-80.655,-15.41C-26.589,-76.03 -21.873,4.304 -0.688,-15.41" style="fill:none;fill-rule:nonzero;stroke:rgb(255,177,19);stroke-width:5.08px;"/>
                    </g>
                    <g transform="matrix(1,0,0,1,899.984,271.265)">
                        <path d="M0,-264.508C0.484,-238.254 0.445,-163.468 2.31,-89.635C3.379,-47.324 -7.662,-47.392 -85.068,0" style="fill:none;fill-rule:nonzero;stroke:rgb(255,177,19);stroke-width:5.08px;"/>
                    </g>
                    <g transform="matrix(0.974547,-0.224185,-0.224185,-0.974547,1142.05,353.776)">
                        <path d="M-1.038,3.187C12.625,12.692 18.979,7.354 26.698,3.187" style="fill:none;fill-rule:nonzero;stroke:rgb(255,177,19);stroke-width:5.08px;"/>
                    </g>
                    <g transform="matrix(1,0,0,1,1104.97,319.937)">
                        <path d="M0,56.259C19.888,38.717 4.942,20.846 35.312,8.774C64.932,-3 70.775,50.019 50.254,59.259" style="fill:none;fill-rule:nonzero;stroke:rgb(255,177,19);stroke-width:5.08px;"/>
                    </g>
                    <g transform="matrix(1,0,0,1,1189.34,394.106)">
                        <path d="M0,-260.982C20.257,-241.967 25.541,-222.309 29.064,-194.929C32.587,-167.549 25.101,-156.694 42.219,-151.85C21.592,-149.251 15.788,-106.933 19.816,-84.474C23.845,-62.015 37.871,-58.052 24.991,-48.895C-38.957,-3.43 -67.956,0 -140.972,-20.947C-210.273,-40.827 -279.89,-68.715 -359.874,-97.004C-395.896,-109.746 -348.109,-182.988 -396.755,-189.88" style="fill:none;fill-rule:nonzero;stroke:rgb(255,177,19);stroke-width:5.08px;"/>
                    </g>
                    <g transform="matrix(0.838064,0.545572,0.545572,-0.838064,877.623,53.2682)">
                        <path d="M-3.002,-10.112C11.942,-10.735 20.471,-10.219 34.07,-10.112" style="fill:none;fill-rule:nonzero;stroke:rgb(255,177,19);stroke-width:5.08px;"/>
                    </g>
                    <g transform="matrix(-1,0,0,1,790.456,210.302)">
                        <path d="M0,-11.125C-3.069,-11.125 -5.562,-8.632 -5.562,-5.563C-5.562,-2.493 -3.069,0 0,0C3.069,0 5.562,-2.493 5.562,-5.563C5.562,-8.632 3.069,-11.125 0,-11.125"/>
                    </g>
                    <g transform="matrix(-1,0,0,1,790.456,210.302)">
                        <ellipse cx="0" cy="-5.563" rx="5.562" ry="5.563" style="fill:none;stroke:rgb(255,177,19);stroke-width:3.05px;"/>
                    </g>
                    <g transform="matrix(-1,0,0,1,870.072,207.231)">
                        <path d="M0,-11.125C-3.069,-11.125 -5.562,-8.632 -5.562,-5.563C-5.562,-2.493 -3.069,0 0,0C3.069,0 5.562,-2.493 5.562,-5.563C5.562,-8.632 3.069,-11.125 0,-11.125"/>
                    </g>
                    <g transform="matrix(-1,0,0,1,870.072,207.231)">
                        <ellipse cx="0" cy="-5.563" rx="5.562" ry="5.563" style="fill:none;stroke:rgb(255,177,19);stroke-width:3.05px;"/>
                    </g>
                    <g transform="matrix(-1,0,0,1,1104.6,382.292)">
                        <path d="M0,-11.125C-3.07,-11.125 -5.562,-8.632 -5.562,-5.562C-5.562,-2.492 -3.07,0 0,0C3.069,0 5.562,-2.492 5.562,-5.562C5.562,-8.632 3.069,-11.125 0,-11.125"/>
                    </g>
                    <g transform="matrix(-1,0,0,1,1104.6,382.292)">
                        <ellipse cx="0" cy="-5.563" rx="5.562" ry="5.563" style="fill:none;stroke:rgb(255,177,19);stroke-width:3.05px;"/>
                    </g>
                    <g transform="matrix(-1,0,0,1,1140.33,356.465)">
                        <path d="M0,-11.124C-3.069,-11.124 -5.562,-8.632 -5.562,-5.562C-5.562,-2.492 -3.069,0 0,0C3.07,0 5.562,-2.492 5.562,-5.562C5.562,-8.632 3.07,-11.124 0,-11.124"/>
                    </g>
                    <g transform="matrix(-1,0,0,1,1140.33,356.465)">
                        <circle cx="0" cy="-5.562" r="5.562" style="fill:none;stroke:rgb(255,177,19);stroke-width:3.05px;"/>
                    </g>
                    <g transform="matrix(-1,0,0,1,877.613,174.089)">
                        <path d="M0,-11.125C-3.069,-11.125 -5.562,-8.632 -5.562,-5.563C-5.562,-2.493 -3.069,0 0,0C3.069,0 5.562,-2.493 5.562,-5.563C5.562,-8.632 3.069,-11.125 0,-11.125"/>
                    </g>
                    <g transform="matrix(-1,0,0,1,877.613,174.089)">
                        <ellipse cx="0" cy="-5.563" rx="5.562" ry="5.563" style="fill:none;stroke:rgb(255,177,19);stroke-width:3.05px;"/>
                    </g>
                    <g transform="matrix(-1,0,0,1,869.591,65.6675)">
                        <path d="M0,-11.125C-3.07,-11.125 -5.562,-8.632 -5.562,-5.562C-5.562,-2.492 -3.07,0 0,0C3.07,0 5.562,-2.492 5.562,-5.562C5.562,-8.632 3.07,-11.125 0,-11.125"/>
                    </g>
                    <g transform="matrix(-1,0,0,1,869.591,65.6675)">
                        <ellipse cx="0" cy="-5.563" rx="5.562" ry="5.563" style="fill:none;stroke:rgb(255,177,19);stroke-width:3.05px;"/>
                    </g>
                    <g transform="matrix(-1,0,0,1,899.591,12.625)">
                        <path d="M0,-11.125C-3.07,-11.125 -5.562,-8.632 -5.562,-5.562C-5.562,-2.492 -3.07,0 0,0C3.07,0 5.562,-2.492 5.562,-5.562C5.562,-8.632 3.07,-11.125 0,-11.125"/>
                    </g>
                    <g transform="matrix(-1,0,0,1,899.591,12.625)">
                        <ellipse cx="0" cy="-5.563" rx="5.562" ry="5.563" style="fill:none;stroke:rgb(255,177,19);stroke-width:3.05px;"/>
                    </g>
                    <g transform="matrix(-1,0,0,1,929.26,485.028)">
                        <path d="M0.001,-11.125C-3.069,-11.125 -5.562,-8.633 -5.562,-5.563C-5.562,-2.493 -3.069,0 0.001,0C3.07,0 5.563,-2.493 5.563,-5.563C5.563,-8.633 3.07,-11.125 0.001,-11.125"/>
                    </g>
                    <g transform="matrix(-1,0,0,1,929.26,485.028)">
                        <circle cx="0.001" cy="-5.563" r="5.563" style="fill:none;stroke:rgb(255,177,19);stroke-width:3.05px;"/>
                    </g>
                    <g transform="matrix(-1,0,0,1,290.77,326.369)">
                        <path d="M0.001,-11.125C-3.069,-11.125 -5.562,-8.633 -5.562,-5.563C-5.562,-2.493 -3.069,0 0.001,0C3.07,0 5.563,-2.493 5.563,-5.563C5.563,-8.633 3.07,-11.125 0.001,-11.125"/>
                    </g>
                    <g transform="matrix(-1,0,0,1,290.77,326.369)">
                        <circle cx="0.001" cy="-5.563" r="5.563" style="fill:none;stroke:rgb(255,177,19);stroke-width:3.05px;"/>
                    </g>
                    <g transform="matrix(-1,0,0,1,285.687,370.775)">
                        <path d="M0.001,-11.125C-3.069,-11.125 -5.562,-8.633 -5.562,-5.563C-5.562,-2.493 -3.069,0 0.001,0C3.07,0 5.563,-2.493 5.563,-5.563C5.563,-8.633 3.07,-11.125 0.001,-11.125"/>
                    </g>
                    <g transform="matrix(-1,0,0,1,285.687,370.775)">
                        <circle cx="0.001" cy="-5.563" r="5.563" style="fill:none;stroke:rgb(255,177,19);stroke-width:3.05px;"/>
                    </g>
                    <g transform="matrix(-1,0,0,1,926.072,512.542)">
                        <path d="M0,-11.124C-3.069,-11.124 -5.562,-8.632 -5.562,-5.562C-5.562,-2.492 -3.069,0 0,0C3.07,0 5.562,-2.492 5.562,-5.562C5.562,-8.632 3.07,-11.124 0,-11.124"/>
                    </g>
                    <g transform="matrix(-1,0,0,1,926.072,512.542)">
                        <circle cx="0" cy="-5.562" r="5.562" style="fill:none;stroke:rgb(255,177,19);stroke-width:3.05px;"/>
                    </g>
                    <g transform="matrix(-0.941877,-0.335958,-0.335958,0.941877,1183.02,290.636)">
                        <path d="M-29.984,7.262C-29.984,7.262 -18.653,-1.914 0.517,7.262" style="fill:none;fill-rule:nonzero;stroke:rgb(255,177,19);stroke-width:5.08px;"/>
                    </g>
                    <g transform="matrix(0.944986,-0.32711,-0.32711,-0.944986,1177.78,329.075)">
                        <path d="M-0.64,5.884C-0.64,5.884 15.703,-2.103 35.709,5.884" style="fill:none;fill-rule:nonzero;stroke:rgb(255,177,19);stroke-width:5.08px;"/>
                    </g>
                    <g transform="matrix(-1,0,0,1,1179.55,302.864)">
                        <path d="M0,-11.124C-3.07,-11.124 -5.562,-8.632 -5.562,-5.562C-5.562,-2.492 -3.07,0 0,0C3.07,0 5.562,-2.492 5.562,-5.562C5.562,-8.632 3.07,-11.124 0,-11.124"/>
                    </g>
                    <g transform="matrix(-1,0,0,1,1179.55,302.864)">
                        <circle cx="0" cy="-5.562" r="5.562" style="fill:none;stroke:rgb(255,177,19);stroke-width:3.05px;"/>
                    </g>
                    <g transform="matrix(-1,0,0,1,1174.7,329.286)">
                        <path d="M0,-11.124C-3.069,-11.124 -5.562,-8.632 -5.562,-5.562C-5.562,-2.492 -3.069,0 0,0C3.07,0 5.562,-2.492 5.562,-5.562C5.562,-8.632 3.07,-11.124 0,-11.124"/>
                    </g>
                    <g transform="matrix(-1,0,0,1,1174.7,329.286)">
                        <circle cx="0" cy="-5.562" r="5.562" style="fill:none;stroke:rgb(255,177,19);stroke-width:3.05px;"/>
                    </g>
                    <g transform="matrix(-1,0,0,1,1231.56,249.139)">
                        <path d="M0,-11.124C-3.07,-11.124 -5.562,-8.632 -5.562,-5.562C-5.562,-2.492 -3.07,0 0,0C3.069,0 5.562,-2.492 5.562,-5.562C5.562,-8.632 3.069,-11.124 0,-11.124"/>
                    </g>
                    <g transform="matrix(-1,0,0,1,1231.56,249.139)">
                        <circle cx="0" cy="-5.562" r="5.562" style="fill:none;stroke:rgb(255,177,19);stroke-width:3.05px;"/>
                    </g>
                    <g transform="matrix(-1,0,0,1,1190.67,138.686)">
                        <path d="M0,-11.124C-3.07,-11.124 -5.562,-8.632 -5.562,-5.562C-5.562,-2.492 -3.07,0 0,0C3.07,0 5.562,-2.492 5.562,-5.562C5.562,-8.632 3.07,-11.124 0,-11.124"/>
                    </g>
                    <g transform="matrix(-1,0,0,1,1190.67,138.686)">
                        <circle cx="0" cy="-5.562" r="5.562" style="fill:none;stroke:rgb(255,177,19);stroke-width:3.05px;"/>
                    </g>
                    <g transform="matrix(0.500843,0.865538,0.865538,-0.500843,285.637,324.576)">
                        <path d="M-9.783,-16.965C7.59,-26.946 29.416,-16.965 29.416,-16.965" style="fill:none;fill-rule:nonzero;stroke:rgb(255,177,19);stroke-width:5.08px;"/>
                    </g>
                    <g transform="matrix(-1,0,0,1,265.939,330.112)">
                        <path d="M0.001,-11.125C-3.069,-11.125 -5.562,-8.633 -5.562,-5.563C-5.562,-2.493 -3.069,0 0.001,0C3.07,0 5.563,-2.493 5.563,-5.563C5.563,-8.633 3.07,-11.125 0.001,-11.125"/>
                    </g>
                    <g transform="matrix(-1,0,0,1,265.939,330.112)">
                        <circle cx="0.001" cy="-5.563" r="5.563" style="fill:none;stroke:rgb(255,177,19);stroke-width:3.05px;"/>
                    </g>
                    <g transform="matrix(-0.664039,0.747698,0.747698,0.664039,306.105,420.943)">
                        <path d="M-50.774,-21.426C-36.015,-31.579 -11.478,-41.558 8.394,-21.426" style="fill:none;fill-rule:nonzero;stroke:rgb(255,177,19);stroke-width:5.08px;"/>
                    </g>
                    <g transform="matrix(-1,0,0,1,323.801,374.314)">
                        <path d="M0.001,-11.125C-3.069,-11.125 -5.562,-8.633 -5.562,-5.563C-5.562,-2.493 -3.069,0 0.001,0C3.07,0 5.563,-2.493 5.563,-5.563C5.563,-8.633 3.07,-11.125 0.001,-11.125"/>
                    </g>
                    <g transform="matrix(-1,0,0,1,323.801,374.314)">
                        <circle cx="0.001" cy="-5.563" r="5.563" style="fill:none;stroke:rgb(255,177,19);stroke-width:3.05px;"/>
                    </g>
                    <g transform="matrix(0.531159,0.847272,0.847272,-0.531159,674.07,540.076)">
                        <path d="M-7.151,-12.356C11.271,-21.567 17.175,-21.144 21.424,-12.356" style="fill:none;fill-rule:nonzero;stroke:rgb(255,177,19);stroke-width:5.08px;"/>
                    </g>
                    <g transform="matrix(0.744516,0.667604,0.667604,-0.744516,659.461,536.328)">
                        <path d="M-6.537,-13.967C6.095,-25.416 21.59,-30.448 33.704,-13.967" style="fill:none;fill-rule:nonzero;stroke:rgb(255,177,19);stroke-width:5.08px;"/>
                    </g>
                    <g transform="matrix(0.829282,0.55883,0.55883,-0.829282,633.119,438.785)">
                        <path d="M-1.724,-5.643C4.798,-1.926 10.136,1.628 18.472,-5.643" style="fill:none;fill-rule:nonzero;stroke:rgb(255,177,19);stroke-width:5.08px;"/>
                    </g>
                    <g transform="matrix(0.92115,0.389209,0.389209,-0.92115,630.252,451.343)">
                        <path d="M-0.205,-3.923C7.82,-0.854 12.489,4.87 20.596,-3.923" style="fill:none;fill-rule:nonzero;stroke:rgb(255,177,19);stroke-width:5.08px;"/>
                    </g>
                    <g transform="matrix(-1,0,0,1,645.284,547.925)">
                        <path d="M0.001,-11.125C-3.069,-11.125 -5.562,-8.633 -5.562,-5.563C-5.562,-2.493 -3.069,0 0.001,0C3.069,0 5.563,-2.493 5.563,-5.563C5.563,-8.633 3.069,-11.125 0.001,-11.125"/>
                    </g>
                    <g transform="matrix(-1,0,0,1,645.284,547.925)">
                        <circle cx="0.001" cy="-5.563" r="5.563" style="fill:none;stroke:rgb(255,177,19);stroke-width:3.05px;"/>
                    </g>
                    <g transform="matrix(1,0,0,1,628.536,450.201)">
                        <path d="M0,-13.135C4.371,-13.135 7.573,-8.078 4.07,-3.5C-0.508,0 -5.562,-3.201 -5.562,-7.572C-5.562,-10.642 -3.069,-13.135 0,-13.135"/>
                    </g>
                    <g transform="matrix(1,0,0,1,628.536,450.201)">
                        <path d="M0,-13.135C4.371,-13.135 7.573,-8.078 4.07,-3.5C-0.508,0 -5.562,-3.201 -5.562,-7.572C-5.562,-10.642 -3.069,-13.135 0,-13.135Z" style="fill:none;fill-rule:nonzero;stroke:rgb(255,177,19);stroke-width:3.05px;"/>
                    </g>
                    <g transform="matrix(1,0,0,1,542.445,480.178)">
                        <path d="M0,-13.135C4.371,-13.135 7.573,-8.079 4.07,-3.501C-0.508,0 -5.563,-3.202 -5.563,-7.572C-5.563,-10.642 -3.07,-13.135 0,-13.135"/>
                    </g>
                    <g transform="matrix(1,0,0,1,542.445,480.178)">
                        <path d="M0,-13.135C4.371,-13.135 7.573,-8.079 4.07,-3.501C-0.508,0 -5.563,-3.202 -5.563,-7.572C-5.563,-10.642 -3.07,-13.135 0,-13.135Z" style="fill:none;fill-rule:nonzero;stroke:rgb(255,177,19);stroke-width:3.05px;"/>
                    </g>
                    <g transform="matrix(1,0,0,1,361.675,591.553)">
                        <path d="M0,-13.135C4.371,-13.135 7.573,-8.078 4.07,-3.501C-0.508,0 -5.563,-3.202 -5.563,-7.573C-5.563,-10.642 -3.07,-13.135 0,-13.135"/>
                    </g>
                    <g transform="matrix(1,0,0,1,361.675,591.553)">
                        <path d="M0,-13.135C4.371,-13.135 7.573,-8.078 4.07,-3.501C-0.508,0 -5.563,-3.202 -5.563,-7.573C-5.563,-10.642 -3.07,-13.135 0,-13.135Z" style="fill:none;fill-rule:nonzero;stroke:rgb(255,177,19);stroke-width:3.05px;"/>
                    </g>
                    <g transform="matrix(-1,0,0,1,312.854,592.9)">
                        <path d="M0.001,-11.124C-3.069,-11.124 -5.562,-8.632 -5.562,-5.562C-5.562,-2.492 -3.069,0 0.001,0C3.071,0 5.563,-2.492 5.563,-5.562C5.563,-8.632 3.071,-11.124 0.001,-11.124"/>
                    </g>
                    <g transform="matrix(-1,0,0,1,312.854,592.9)">
                        <ellipse cx="0.001" cy="-5.562" rx="5.563" ry="5.562" style="fill:none;stroke:rgb(255,177,19);stroke-width:3.05px;"/>
                    </g>
                    <g transform="matrix(1,0,0,1,394.703,583.945)">
                        <path d="M0,-13.136C4.371,-13.136 7.573,-8.079 4.07,-3.501C-0.508,0 -5.563,-3.202 -5.563,-7.573C-5.563,-10.643 -3.07,-13.136 0,-13.136"/>
                    </g>
                    <g transform="matrix(1,0,0,1,394.703,583.945)">
                        <path d="M0,-13.136C4.371,-13.136 7.573,-8.079 4.07,-3.501C-0.508,0 -5.563,-3.202 -5.563,-7.573C-5.563,-10.643 -3.07,-13.136 0,-13.136Z" style="fill:none;fill-rule:nonzero;stroke:rgb(255,177,19);stroke-width:3.05px;"/>
                    </g>
                    <g transform="matrix(-1,0,0,1,430.799,565.404)">
                        <path d="M0,-11.125C-3.07,-11.125 -5.562,-8.632 -5.562,-5.563C-5.562,-2.492 -3.07,0 0,0C3.07,0 5.562,-2.492 5.562,-5.563C5.562,-8.632 3.07,-11.125 0,-11.125"/>
                    </g>
                    <g transform="matrix(-1,0,0,1,430.799,565.404)">
                        <ellipse cx="0" cy="-5.563" rx="5.562" ry="5.563" style="fill:none;stroke:rgb(255,177,19);stroke-width:3.05px;"/>
                    </g>
                    <g transform="matrix(1,0,0,1,628.536,462.45)">
                        <path d="M0,-13.135C4.371,-13.135 7.573,-8.078 4.07,-3.501C-0.508,0 -5.562,-3.202 -5.562,-7.572C-5.562,-10.642 -3.069,-13.135 0,-13.135"/>
                    </g>
                    <g transform="matrix(1,0,0,1,628.536,462.45)">
                        <path d="M0,-13.135C4.371,-13.135 7.573,-8.078 4.07,-3.501C-0.508,0 -5.562,-3.202 -5.562,-7.572C-5.562,-10.642 -3.069,-13.135 0,-13.135Z" style="fill:none;fill-rule:nonzero;stroke:rgb(255,177,19);stroke-width:3.05px;"/>
                    </g>
                    <g transform="matrix(-1,0,0,1,660.433,546.225)">
                        <path d="M0.001,-11.125C-3.069,-11.125 -5.562,-8.633 -5.562,-5.563C-5.562,-2.493 -3.069,0 0.001,0C3.069,0 5.563,-2.493 5.563,-5.563C5.563,-8.633 3.069,-11.125 0.001,-11.125"/>
                    </g>
                    <g transform="matrix(-1,0,0,1,660.433,546.225)">
                        <circle cx="0.001" cy="-5.563" r="5.563" style="fill:none;stroke:rgb(255,177,19);stroke-width:3.05px;"/>
                    </g>
                    <g transform="matrix(-0.975074,0.221879,0.221879,0.975074,578.765,203.928)">
                        <path d="M-0.157,-12.335C-3.91,-11.481 -5.909,-7.008 -3.312,-3.437C-2.56,-2.403 -1.414,-1.682 -0.157,-1.451C4.188,-0.655 7.355,-4.393 6.501,-8.146C5.82,-11.139 2.836,-13.016 -0.157,-12.335"/>
                    </g>
                    <g transform="matrix(-0.975074,0.221879,0.221879,0.975074,578.765,203.928)">
                        <path d="M-0.157,-12.335C-3.91,-11.481 -5.909,-7.008 -3.312,-3.437C-2.56,-2.403 -1.414,-1.682 -0.157,-1.451C4.188,-0.655 7.355,-4.393 6.501,-8.146C5.82,-11.139 2.836,-13.016 -0.157,-12.335Z" style="fill:none;fill-rule:nonzero;stroke:rgb(255,177,19);stroke-width:3.05px;"/>
                    </g>
                </g>
            </g>
        </g>
    </g>
</svg>
