<?xml version="1.0" encoding="UTF-8" standalone="no"?>
<!DOCTYPE svg PUBLIC "-//W3C//DTD SVG 1.1//EN" "http://www.w3.org/Graphics/SVG/1.1/DTD/svg11.dtd">
<svg width="100%" height="100%" viewBox="0 0 251 182" version="1.1" xmlns="http://www.w3.org/2000/svg" xmlns:xlink="http://www.w3.org/1999/xlink" xml:space="preserve" xmlns:serif="http://www.serif.com/" style="fill-rule:evenodd;clip-rule:evenodd;stroke-linecap:round;stroke-linejoin:round;stroke-miterlimit:10;">
    <g transform="matrix(1,0,0,1,-1514.99,-3012.14)">
        <g transform="matrix(0.983607,0,0,0.983607,686.544,2915.04)">
            <g id="後行李箱線束">
                <g id="後行李箱線束1" serif:id="後行李箱線束">
                    <g transform="matrix(0.507262,0.861792,0.861792,-0.507262,880.055,111.352)">
                        <path d="M-14.33,-28.276C2.409,-62.282 46.801,0.652 47.563,-28.276" style="fill:none;fill-rule:nonzero;stroke:rgb(255,177,19);stroke-width:5.08px;"/>
                    </g>
                    <g transform="matrix(-0.972311,-0.23369,-0.23369,0.972311,881.66,159.865)">
                        <path d="M-87.035,9.006C-55.135,33.821 -18.901,-11.636 1.381,9.006" style="fill:none;fill-rule:nonzero;stroke:rgb(255,177,19);stroke-width:5.08px;"/>
                    </g>
                    <g transform="matrix(-0.871642,-0.490143,-0.490143,0.871642,960.857,152.956)">
                        <path d="M-171.748,44.977C-86.057,77.875 -25.086,50.256 11.779,44.977" style="fill:none;fill-rule:nonzero;stroke:rgb(255,177,19);stroke-width:5.08px;"/>
                    </g>
                    <g transform="matrix(-0.261487,0.965207,0.965207,0.261487,882.958,142.699)">
                        <path d="M-33.575,-14.633C-24.043,-24.292 4.121,-27.606 8.201,-14.633" style="fill:none;fill-rule:nonzero;stroke:rgb(255,177,19);stroke-width:5.08px;"/>
                    </g>
                    <g transform="matrix(-1,0,0,1,966.65,194.124)">
                        <path d="M0,-11.125C-3.07,-11.125 -5.562,-8.633 -5.562,-5.563C-5.562,-2.493 -3.07,0 0,0C3.07,0 5.562,-2.493 5.562,-5.563C5.562,-8.633 3.07,-11.125 0,-11.125"/>
                    </g>
                    <g transform="matrix(-1,0,0,1,966.65,194.124)">
                        <ellipse cx="0" cy="-5.563" rx="5.562" ry="5.563" style="fill:none;stroke:rgb(255,177,19);stroke-width:3.05px;"/>
                    </g>
                    <g transform="matrix(-1,0,0,1,877.613,174.089)">
                        <path d="M0,-11.125C-3.069,-11.125 -5.562,-8.632 -5.562,-5.563C-5.562,-2.493 -3.069,0 0,0C3.069,0 5.562,-2.493 5.562,-5.563C5.562,-8.632 3.069,-11.125 0,-11.125"/>
                    </g>
                    <g transform="matrix(-1,0,0,1,877.613,174.089)">
                        <ellipse cx="0" cy="-5.563" rx="5.562" ry="5.563" style="fill:none;stroke:rgb(255,177,19);stroke-width:3.05px;"/>
                    </g>
                    <g transform="matrix(-1,0,0,1,1090.3,281.931)">
                        <path d="M0,-11.124C-3.069,-11.124 -5.562,-8.632 -5.562,-5.562C-5.562,-2.492 -3.069,0 0,0C3.07,0 5.562,-2.492 5.562,-5.562C5.562,-8.632 3.07,-11.124 0,-11.124"/>
                    </g>
                    <g transform="matrix(-1,0,0,1,1090.3,281.931)">
                        <circle cx="0" cy="-5.562" r="5.562" style="fill:none;stroke:rgb(255,177,19);stroke-width:3.05px;"/>
                    </g>
                    <g transform="matrix(-1,0,0,1,850.908,117.59)">
                        <path d="M0,-11.125C-3.069,-11.125 -5.562,-8.632 -5.562,-5.562C-5.562,-2.493 -3.069,0 0,0C3.069,0 5.562,-2.493 5.562,-5.562C5.562,-8.632 3.069,-11.125 0,-11.125"/>
                    </g>
                    <g transform="matrix(-1,0,0,1,850.908,117.59)">
                        <ellipse cx="0" cy="-5.563" rx="5.562" ry="5.563" style="fill:none;stroke:rgb(255,177,19);stroke-width:3.05px;"/>
                    </g>
                    <g transform="matrix(-1,0,0,1,878.925,111.364)">
                        <path d="M0,-11.125C-3.069,-11.125 -5.562,-8.632 -5.562,-5.562C-5.562,-2.493 -3.069,0 0,0C3.07,0 5.562,-2.493 5.562,-5.562C5.562,-8.632 3.07,-11.125 0,-11.125"/>
                    </g>
                    <g transform="matrix(-1,0,0,1,878.925,111.364)">
                        <ellipse cx="0" cy="-5.563" rx="5.562" ry="5.563" style="fill:none;stroke:rgb(255,177,19);stroke-width:3.05px;"/>
                    </g>
                </g>
            </g>
        </g>
    </g>
</svg>
