<?xml version="1.0" encoding="UTF-8" standalone="no"?>
<!DOCTYPE svg PUBLIC "-//W3C//DTD SVG 1.1//EN" "http://www.w3.org/Graphics/SVG/1.1/DTD/svg11.dtd">
<svg width="100%" height="100%" viewBox="0 0 372 155" version="1.1" xmlns="http://www.w3.org/2000/svg" xmlns:xlink="http://www.w3.org/1999/xlink" xml:space="preserve" xmlns:serif="http://www.serif.com/" style="fill-rule:evenodd;clip-rule:evenodd;stroke-linecap:round;stroke-linejoin:round;stroke-miterlimit:10;">
    <g transform="matrix(1,0,0,1,-1310.95,-2915.02)">
        <g transform="matrix(0.983607,0,0,0.983607,686.544,2915.04)">
            <g id="車頂棚線束">
                <g id="車頂棚線束1" serif:id="車頂棚線束">
                    <g transform="matrix(0.810914,0.585165,0.585165,-0.810914,965.553,5.82979)">
                        <path d="M-2.865,-8.865C11.147,-5.751 9.934,-16.153 27.435,-8.865" style="fill:none;fill-rule:nonzero;stroke:rgb(255,177,19);stroke-width:5.08px;"/>
                    </g>
                    <g transform="matrix(1,0,0,1,1006.08,123.793)">
                        <path d="M0,-85.428C4.81,-95.849 1.263,-100.397 -0.633,-101.04C-15.893,-106.212 -53.857,-119.184 -110.765,-116.731C-210.062,-112.451 -294.296,-75.285 -318.637,-66.705C-325.503,-64.284 -322.954,-55.987 -313.007,-52.906C-294.467,-47.161 -221.529,-23.601 -204.897,-19.366C-189.65,-15.484 -186.395,-8.604 -195.127,-4.726C-213.039,3.224 -216.046,6.643 -229.581,13.991C-263.389,32.343 -265.793,33.756 -283.604,27.225C-310.254,17.453 -313.783,14.954 -343.462,2.779" style="fill:none;fill-rule:nonzero;stroke:rgb(255,177,19);stroke-width:5.08px;"/>
                    </g>
                    <g transform="matrix(0.595,0.803726,0.803726,-0.595,840.558,11.9279)">
                        <path d="M-3.982,-7.902C1.461,-6.725 7.733,-6.316 15.681,-7.902" style="fill:none;fill-rule:nonzero;stroke:rgb(255,177,19);stroke-width:5.08px;"/>
                    </g>
                    <g transform="matrix(0.595,0.803726,0.803726,-0.595,734.222,44.4045)">
                        <path d="M-3.982,-7.902C1.462,-6.725 7.734,-6.317 15.681,-7.902" style="fill:none;fill-rule:nonzero;stroke:rgb(255,177,19);stroke-width:5.08px;"/>
                    </g>
                    <g transform="matrix(0.870361,-0.492414,-0.492414,-0.870361,652.055,144.561)">
                        <path d="M-2.659,10.099C12.916,10.852 22.985,12.281 38.358,10.099" style="fill:none;fill-rule:nonzero;stroke:rgb(255,177,19);stroke-width:5.08px;"/>
                    </g>
                    <g transform="matrix(-0.519505,0.854468,0.854468,0.519505,704.038,79.6351)">
                        <path d="M-18.582,-19.151C-10.48,-2.307 3.765,-7.265 16.06,-19.151" style="fill:none;fill-rule:nonzero;stroke:rgb(255,177,19);stroke-width:5.08px;"/>
                    </g>
                    <g transform="matrix(-1,0,0,1,843.948,35.9981)">
                        <path d="M0,-11.125C-3.069,-11.125 -5.562,-8.633 -5.562,-5.563C-5.562,-2.493 -3.069,0 0,0C3.07,0 5.562,-2.493 5.562,-5.563C5.562,-8.633 3.07,-11.125 0,-11.125"/>
                    </g>
                    <g transform="matrix(-1,0,0,1,843.948,35.9981)">
                        <ellipse cx="0" cy="-5.563" rx="5.562" ry="5.563" style="fill:none;stroke:rgb(255,177,19);stroke-width:3.05px;"/>
                    </g>
                    <g transform="matrix(-1,0,0,1,737.611,68.4746)">
                        <path d="M-0.001,-11.124C-3.069,-11.124 -5.563,-8.632 -5.563,-5.562C-5.563,-2.492 -3.069,0 -0.001,0C3.069,0 5.562,-2.492 5.562,-5.562C5.562,-8.632 3.069,-11.124 -0.001,-11.124"/>
                    </g>
                    <g transform="matrix(-1,0,0,1,737.611,68.4746)">
                        <ellipse cx="-0" cy="-5.562" rx="5.563" ry="5.562" style="fill:none;stroke:rgb(255,177,19);stroke-width:3.05px;"/>
                    </g>
                    <g transform="matrix(-1,0,0,1,678.436,88.5816)">
                        <path d="M0,-11.125C-3.069,-11.125 -5.562,-8.632 -5.562,-5.562C-5.562,-2.493 -3.069,0 0,0C3.069,0 5.562,-2.493 5.562,-5.562C5.562,-8.632 3.069,-11.125 0,-11.125"/>
                    </g>
                    <g transform="matrix(-1,0,0,1,678.436,88.5816)">
                        <ellipse cx="0" cy="-5.563" rx="5.562" ry="5.563" style="fill:none;stroke:rgb(255,177,19);stroke-width:3.05px;"/>
                    </g>
                    <g transform="matrix(-1,0,0,1,641.899,143.76)">
                        <path d="M-0.001,-11.124C-3.069,-11.124 -5.563,-8.632 -5.563,-5.562C-5.563,-2.492 -3.069,0 -0.001,0C3.069,0 5.562,-2.492 5.562,-5.562C5.562,-8.632 3.069,-11.124 -0.001,-11.124"/>
                    </g>
                    <g transform="matrix(-1,0,0,1,641.899,143.76)">
                        <ellipse cx="-0" cy="-5.562" rx="5.563" ry="5.562" style="fill:none;stroke:rgb(255,177,19);stroke-width:3.05px;"/>
                    </g>
                    <g transform="matrix(-1,0,0,1,683.159,119.154)">
                        <path d="M0,-11.125C-3.069,-11.125 -5.562,-8.633 -5.562,-5.563C-5.562,-2.493 -3.069,0 0,0C3.07,0 5.562,-2.493 5.562,-5.563C5.562,-8.633 3.07,-11.125 0,-11.125"/>
                    </g>
                    <g transform="matrix(-1,0,0,1,683.159,119.154)">
                        <ellipse cx="0" cy="-5.563" rx="5.562" ry="5.563" style="fill:none;stroke:rgb(255,177,19);stroke-width:3.05px;"/>
                    </g>
                    <g transform="matrix(-1,0,0,1,984.287,34.6241)">
                        <path d="M0,-11.125C-3.069,-11.125 -5.562,-8.632 -5.562,-5.563C-5.562,-2.493 -3.069,0 0,0C3.07,0 5.562,-2.493 5.562,-5.563C5.562,-8.632 3.07,-11.125 0,-11.125"/>
                    </g>
                    <g transform="matrix(-1,0,0,1,984.287,34.6241)">
                        <ellipse cx="0" cy="-5.563" rx="5.562" ry="5.563" style="fill:none;stroke:rgb(255,177,19);stroke-width:3.05px;"/>
                    </g>
                    <g transform="matrix(-1,0,0,1,899.591,12.625)">
                        <path d="M0,-11.125C-3.07,-11.125 -5.562,-8.632 -5.562,-5.562C-5.562,-2.492 -3.07,0 0,0C3.07,0 5.562,-2.492 5.562,-5.562C5.562,-8.632 3.07,-11.125 0,-11.125"/>
                    </g>
                    <g transform="matrix(-1,0,0,1,899.591,12.625)">
                        <ellipse cx="0" cy="-5.563" rx="5.562" ry="5.563" style="fill:none;stroke:rgb(255,177,19);stroke-width:3.05px;"/>
                    </g>
                    <g transform="matrix(-1,0,0,1,1005.15,45.4605)">
                        <path d="M0,-11.125C-3.069,-11.125 -5.562,-8.632 -5.562,-5.563C-5.562,-2.493 -3.069,0 0,0C3.07,0 5.562,-2.493 5.562,-5.563C5.562,-8.632 3.07,-11.125 0,-11.125"/>
                    </g>
                    <g transform="matrix(-1,0,0,1,1005.15,45.4605)">
                        <ellipse cx="0" cy="-5.563" rx="5.562" ry="5.563" style="fill:none;stroke:rgb(255,177,19);stroke-width:3.05px;"/>
                    </g>
                    <g transform="matrix(-0.952437,0.304734,0.304734,0.952437,804.438,110.921)">
                        <path d="M-45.983,-7.177L1.12,-7.177" style="fill:none;fill-rule:nonzero;stroke:rgb(255,177,19);stroke-width:5.08px;"/>
                    </g>
                    <g transform="matrix(-1,0,0,1,845.784,95.2608)">
                        <path d="M0,-11.125C-3.069,-11.125 -5.562,-8.633 -5.562,-5.563C-5.562,-2.493 -3.069,0 0,0C3.069,0 5.562,-2.493 5.562,-5.563C5.562,-8.633 3.069,-11.125 0,-11.125"/>
                    </g>
                    <g transform="matrix(-1,0,0,1,845.784,95.2608)">
                        <ellipse cx="0" cy="-5.563" rx="5.562" ry="5.563" style="fill:none;stroke:rgb(255,177,19);stroke-width:3.05px;"/>
                    </g>
                </g>
            </g>
        </g>
    </g>
</svg>
