<?xml version="1.0" encoding="UTF-8" standalone="no"?>
<!DOCTYPE svg PUBLIC "-//W3C//DTD SVG 1.1//EN" "http://www.w3.org/Graphics/SVG/1.1/DTD/svg11.dtd">
<svg width="100%" height="100%" viewBox="0 0 22 19" version="1.1" xmlns="http://www.w3.org/2000/svg" xmlns:xlink="http://www.w3.org/1999/xlink" xml:space="preserve" xmlns:serif="http://www.serif.com/" style="fill-rule:evenodd;clip-rule:evenodd;stroke-linejoin:round;stroke-miterlimit:2;">
    <g transform="matrix(1,0,0,1,-1859,-785.5)">
        <g transform="matrix(1,0,0,1,53,443)">
            <g transform="matrix(1,0,0,1,-73,-59.5)">
                <g opacity="0.5">
                    <g transform="matrix(1.04762,0,0,1,-11.9524,-353)">
                        <path d="M1826,756.5C1826,755.672 1825.36,755 1824.57,755L1806.43,755C1805.64,755 1805,755.672 1805,756.5C1805,757.328 1805.64,758 1806.43,758L1824.57,758C1825.36,758 1826,757.328 1826,756.5Z" style="fill:white;"/>
                    </g>
                    <g transform="matrix(1.04762,0,0,1,-11.9524,-345)">
                        <path d="M1826,756.5C1826,755.672 1825.36,755 1824.57,755L1806.43,755C1805.64,755 1805,755.672 1805,756.5C1805,757.328 1805.64,758 1806.43,758L1824.57,758C1825.36,758 1826,757.328 1826,756.5Z" style="fill:white;"/>
                    </g>
                    <g transform="matrix(1.04762,0,0,1,-11.9524,-337)">
                        <path d="M1826,756.5C1826,755.672 1825.36,755 1824.57,755L1806.43,755C1805.64,755 1805,755.672 1805,756.5C1805,757.328 1805.64,758 1806.43,758L1824.57,758C1825.36,758 1826,757.328 1826,756.5Z" style="fill:white;"/>
                    </g>
                </g>
            </g>
        </g>
    </g>
</svg>
