<?xml version="1.0" encoding="UTF-8" standalone="no"?>
<!DOCTYPE svg PUBLIC "-//W3C//DTD SVG 1.1//EN" "http://www.w3.org/Graphics/SVG/1.1/DTD/svg11.dtd">
<svg width="100%" height="100%" viewBox="0 0 11 19" version="1.1" xmlns="http://www.w3.org/2000/svg" xmlns:xlink="http://www.w3.org/1999/xlink" xml:space="preserve" xmlns:serif="http://www.serif.com/" style="fill-rule:evenodd;clip-rule:evenodd;stroke-linejoin:round;stroke-miterlimit:2;">
    <g transform="matrix(1,0,0,1,-862.983,-1908.72)">
        <g transform="matrix(1,0,0,1,-2.7894,37)">
            <g transform="matrix(1,0,0,1,2.7894,-1356)">
                <path d="M863.422,3235.94C863.422,3235.94 871.2,3228.16 871.2,3228.16C871.786,3227.58 872.736,3227.58 873.322,3228.16C873.907,3228.75 873.907,3229.7 873.322,3230.28L866.604,3237L873.322,3243.72C873.907,3244.3 873.907,3245.25 873.322,3245.84C872.736,3246.42 871.786,3246.42 871.2,3245.84L863.422,3238.06C863.13,3237.77 862.984,3237.39 862.983,3237L862.983,3237C862.984,3236.61 863.13,3236.23 863.422,3235.94Z" style="fill:rgb(34,83,135);"/>
            </g>
        </g>
    </g>
</svg>
