<?xml version="1.0" encoding="UTF-8" standalone="no"?>
<!DOCTYPE svg PUBLIC "-//W3C//DTD SVG 1.1//EN" "http://www.w3.org/Graphics/SVG/1.1/DTD/svg11.dtd">
<svg width="100%" height="100%" viewBox="0 0 23 18" version="1.1" xmlns="http://www.w3.org/2000/svg" xmlns:xlink="http://www.w3.org/1999/xlink" xml:space="preserve" xmlns:serif="http://www.serif.com/" style="fill-rule:evenodd;clip-rule:evenodd;stroke-linejoin:round;stroke-miterlimit:2;">
    <g transform="matrix(1,0,0,1,-970,-2033.88)">
        <g transform="matrix(1,0,0,1,44,-264.786)">
            <g transform="matrix(0.0449219,0,0,0.0449219,926,2295.79)">
                <path d="M255.936,247.312L512,126.688L512,64L0,64L0,126.496L255.936,247.312ZM256.064,318.064L0,197.12L0,448L512,448L512,197.504L256.064,318.064Z" style="fill:rgb(42,179,172);fill-rule:nonzero;"/>
            </g>
        </g>
    </g>
</svg>
