<?xml version="1.0" encoding="UTF-8" standalone="no"?>
<!DOCTYPE svg PUBLIC "-//W3C//DTD SVG 1.1//EN" "http://www.w3.org/Graphics/SVG/1.1/DTD/svg11.dtd">
<svg width="100%" height="100%" viewBox="0 0 18 18" version="1.1" xmlns="http://www.w3.org/2000/svg" xmlns:xlink="http://www.w3.org/1999/xlink" xml:space="preserve" xmlns:serif="http://www.serif.com/" style="fill-rule:evenodd;clip-rule:evenodd;stroke-linejoin:round;stroke-miterlimit:2;">
    <g transform="matrix(1,0,0,1,-1685,-1264.11)">
        <g transform="matrix(1,0,0,1,4,10)">
            <g transform="matrix(0.0239601,0,0,0.0239601,1677.96,1250.42)">
                <path d="M341.792,582.624L271.104,764.064L449.408,690.24L341.792,582.624ZM859.36,195.104L836.736,172.48C811.776,147.488 771.232,147.488 746.24,172.48L700.992,217.728L814.112,330.88L859.36,285.632C884.384,260.64 884.384,220.096 859.36,195.104ZM345.376,573.376L361.568,557.184L474.688,670.304L791.488,353.504L678.368,240.384L700.992,217.728L345.376,573.376ZM736.128,832.128L191.296,832.32L191.392,287.488L572.864,287.36L632.64,224L158.88,224C141.216,224 126.88,238.304 126.88,256L126.88,864C126.88,881.696 141.216,896 158.88,896L766.88,896C784.576,896 798.88,881.696 798.88,864L798.88,414.144L734.4,477.408L736.128,832.128Z" style="fill:rgb(27,121,196);fill-rule:nonzero;"/>
            </g>
        </g>
    </g>
</svg>
