<?xml version="1.0" encoding="UTF-8" standalone="no"?>
<!DOCTYPE svg PUBLIC "-//W3C//DTD SVG 1.1//EN" "http://www.w3.org/Graphics/SVG/1.1/DTD/svg11.dtd">
<svg width="100%" height="100%" viewBox="0 0 20 17" version="1.1" xmlns="http://www.w3.org/2000/svg" xmlns:xlink="http://www.w3.org/1999/xlink" xml:space="preserve" xmlns:serif="http://www.serif.com/" style="fill-rule:evenodd;clip-rule:evenodd;stroke-linejoin:round;stroke-miterlimit:2;">
    <g transform="matrix(1,0,0,1,-706.997,-455.485)">
        <g transform="matrix(1,0,0,1,281.996,-628.015)">
            <g transform="matrix(1,0,0,1,36,638.5)">
                <path d="M409,460.5C409,459.672 408.328,459 407.5,459L390.5,459C389.672,459 389,459.672 389,460.5C389,461.328 389.672,462 390.5,462L407.5,462C408.328,462 409,461.328 409,460.5ZM409,453.5C409,452.672 408.328,452 407.5,452L390.5,452C389.672,452 389,452.672 389,453.5C389,454.328 389.672,455 390.5,455L407.5,455C408.328,455 409,454.328 409,453.5ZM409,446.5C409,445.672 408.328,445 407.5,445L390.5,445C389.672,445 389,445.672 389,446.5C389,447.328 389.672,448 390.5,448L407.5,448C408.328,448 409,447.328 409,446.5Z" style="fill:rgb(255,0,0);"/>
            </g>
        </g>
    </g>
</svg>
