<?xml version="1.0" encoding="UTF-8" standalone="no"?>
<!DOCTYPE svg PUBLIC "-//W3C//DTD SVG 1.1//EN" "http://www.w3.org/Graphics/SVG/1.1/DTD/svg11.dtd">
<svg width="100%" height="100%" viewBox="0 0 13 20" version="1.1" xmlns="http://www.w3.org/2000/svg" xmlns:xlink="http://www.w3.org/1999/xlink" xml:space="preserve" xmlns:serif="http://www.serif.com/" style="fill-rule:evenodd;clip-rule:evenodd;stroke-linejoin:round;stroke-miterlimit:2;">
    <g transform="matrix(1,0,0,1,-1071.98,-1908)">
        <g transform="matrix(-1,0,0,1,1922.79,37)">
            <g transform="matrix(-1,0,0,1,1922.79,-1356)">
                <path d="M1081.76,3235.38L1081.76,3228.5C1081.76,3227.67 1082.43,3227 1083.26,3227C1084.09,3227 1084.76,3227.67 1084.76,3228.5L1084.76,3245.5C1084.76,3246.33 1084.09,3247 1083.26,3247C1082.43,3247 1081.76,3246.33 1081.76,3245.5L1081.76,3238.62L1074.54,3245.84C1073.96,3246.42 1073.01,3246.42 1072.42,3245.84C1071.84,3245.25 1071.84,3244.3 1072.42,3243.72L1079.14,3237L1072.42,3230.28C1071.84,3229.7 1071.84,3228.75 1072.42,3228.16C1073.01,3227.58 1073.96,3227.58 1074.54,3228.16L1081.76,3235.38Z" style="fill:rgb(34,83,135);"/>
            </g>
        </g>
    </g>
</svg>
